…
### 特定の列のデータを抽出したい


```r
landcover[,"class"]
```

```
Simple feature collection with 157 features and 1 field
geometry type:  POLYGON
dimension:      XY
bbox:           xmin: 24904.97 ymin: 2710.929 xmax: 24992.02 ymax: 2824.005
epsg (SRID):    NA
proj4string:    +proj=tmerc +lat_0=36 +lon_0=139.8333333333333 +k=0.9999 +x_0=0 +y_0=0 +ellps=GRS80 +units=m +no_defs
# A tibble: 157 x 2
   class                                                          geometry
   <chr>                                                     <POLYGON [m]>
 1 構造物 ((24985.42 2713.855, 24986.65 2713.886, 24986.65 2712.806, 2498~
 2 構造物 ((24933.71 2711.357, 24932.91 2712.066, 24933.68 2712.868, 2493~
 3 植生   ((24921.19 2711.823, 24920.89 2711.823, 24920.48 2711.781, 2492~
 4 植生   ((24917.46 2711.022, 24917.61 2711.126, 24917.85 2711.195, 2491~
 5 構造物 ((24925.27 2710.929, 24925.06 2710.985, 24924.73 2711.118, 2492~
 6 植生   ((24917.46 2711.022, 24910.18 2710.995, 24910.08 2711.091, 2490~
 7 裸地   ((24991.99 2718.085, 24991.99 2717.693, 24990.16 2717.663, 2498~
 8 植生   ((24991.99 2717.693, 24991.99 2710.986, 24931.58 2710.985, 2491~
 9 植生   ((24905.07 2714.537, 24905.01 2720.457, 24905.18 2720.342, 2490~
10 裸地   ((24970.5 2719.856, 24970.72 2719.979, 24971.08 2719.979, 24971~
# ... with 147 more rows
```
…
```r
#ヘクタールha、アールa、平方キロ,km^2
landcover_area %>% mutate(AREA=units::set_units(.$AREA,ha))
```

```
Simple feature collection with 157 features and 3 fields
geometry type:  POLYGON
dimension:      XY
bbox:           xmin: 24904.97 ymin: 2710.929 xmax: 24992.02 ymax: 2824.005
epsg (SRID):    NA
proj4string:    +proj=tmerc +lat_0=36 +lon_0=139.8333333333333 +k=0.9999 +x_0=0 +y_0=0 +ellps=GRS80 +units=m +no_defs
# A tibble: 157 x 4
   class  subclass     AREA                                       geometry
   <chr>  <chr>        <S3: units>                           <POLYGON [m]>
 1 構造物 コンクリート 0.000126641806965745 ((24985.42 2713.855, 24986.65~
 2 構造物 コンクリート 0.00011670631985744  ((24933.71 2711.357, 24932.91~
 3 植生   芝           0.00924662730632117  ((24921.19 2711.823, 24920.89~
 4 植生   高木         0.000475338547215705 ((24917.46 2711.022, 24917.61~
 5 構造物 コンクリート 0.0168432198342496   ((24925.27 2710.929, 24925.06~
 6 植生   高木         0.00205295716293094  ((24917.46 2711.022, 24910.18~
 7 裸地   裸地         0.00887457454996586  ((24991.99 2718.085, 24991.99~
 8 植生   芝           0.116635215189833    ((24991.99 2717.693, 24991.99~
 9 植生   高木         0.00106482112367005  ((24905.07 2714.537, 24905.01~
10 裸地   裸地         0.00143381424049762  ((24970.5 2719.856, 24970.72 ~
# ... with 147 more rows
```
…
### 属性列を削除したい


```r
landcover %>% dplyr::select(-subclass)
```

```
Simple feature collection with 157 features and 1 field
geometry type:  POLYGON
dimension:      XY
bbox:           xmin: 24904.97 ymin: 2710.929 xmax: 24992.02 ymax: 2824.005
epsg (SRID):    NA
proj4string:    +proj=tmerc +lat_0=36 +lon_0=139.8333333333333 +k=0.9999 +x_0=0 +y_0=0 +ellps=GRS80 +units=m +no_defs
# A tibble: 157 x 2
   class                                                          geometry
   <chr>                                                     <POLYGON [m]>
 1 構造物 ((24985.42 2713.855, 24986.65 2713.886, 24986.65 2712.806, 2498~
 2 構造物 ((24933.71 2711.357, 24932.91 2712.066, 24933.68 2712.868, 2493~
 3 植生   ((24921.19 2711.823, 24920.89 2711.823, 24920.48 2711.781, 2492~
 4 植生   ((24917.46 2711.022, 24917.61 2711.126, 24917.85 2711.195, 2491~
 5 構造物 ((24925.27 2710.929, 24925.06 2710.985, 24924.73 2711.118, 2492~
 6 植生   ((24917.46 2711.022, 24910.18 2710.995, 24910.08 2711.091, 2490~
 7 裸地   ((24991.99 2718.085, 24991.99 2717.693, 24990.16 2717.663, 2498~
 8 植生   ((24991.99 2717.693, 24991.99 2710.986, 24931.58 2710.985, 2491~
 9 植生   ((24905.07 2714.537, 24905.01 2720.457, 24905.18 2720.342, 2490~
10 裸地   ((24970.5 2719.856, 24970.72 2719.979, 24971.08 2719.979, 24971~
# ... with 147 more rows
```

### 属性だけを取り出したい


```r
landcover %>% st_set_geometry(NULL)
```

```
# A tibble: 157 x 2
   class  subclass    
 * <chr>  <chr>       
 1 構造物 コンクリート
 2 構造物 コンクリート
 3 植生   芝          
 4 植生   高木        
 5 構造物 コンクリート
 6 植生   高木        
 7 裸地   裸地        
 8 植生   芝          
 9 植生   高木        
10 裸地   裸地        
# ... with 147 more rows
```
…
```r
#縦長なデータに変換
df_class_mean<-df_class_mean %>% 
  gather(key=Bands,value=Reflectance,-class) %>% 
  print
```

```
# A tibble: 25 x 3
   class  Bands Reflectance
   <chr>  <chr>       <dbl>
 1 その他 blue        9018.
 2 構造物 blue          NA 
 3 植生   blue          NA 
 4 水     blue        1306.
 5 裸地   blue        4416.
 6 その他 green       7574.
 7 構造物 green         NA 
 8 植生   green         NA 
 9 水     green       1943.
10 裸地   green       5984.
# ... with 15 more rows
```
…
